<?xml version="1.0" encoding="utf-8"?>
<!-- Generator: Adobe Illustrator 24.3.0, SVG Export Plug-In . SVG Version: 6.00 Build 0)  -->
<svg version="1.1" id="Layer_1" xmlns="http://www.w3.org/2000/svg" xmlns:xlink="http://www.w3.org/1999/xlink" x="0px" y="0px"
	 viewBox="0 0 504.7 504.7" style="enable-background:new 0 0 504.7 504.7;" xml:space="preserve">
<style type="text/css">
	.st0{fill:none;}
	.st1{fill:#FFFFFF;}
</style>
<g>
	<path class="st0" d="M96.1,349.4l-15.4,73.9l73-17.1l16.6,8.2c25.6,12.7,53.3,19.1,82.1,19.1c49.3,0,95.6-19,130.5-53.6
		c34.5-34.3,54-81,54-129.4c0-48.9-19.2-94.8-54-129.4C348,86.5,301.6,67.4,252.4,67.4c-48.8,0-95.9,19.3-130.5,53.6
		c-34.9,34.6-54,80.5-54,129.4c0,29.3,6.7,57.2,20.1,83.1L96.1,349.4z M123.6,187.6c1.8-18.1,16.8-34.5,29.4-45.2
		c8.6-7.3,21.8-4.3,26.3,6.1l19,43.4c2.5,5.7,1.7,12.3-2.1,17.3l-9.7,12.6c-4.1,5.3-4.6,12.6-1.3,18.4
		c11.5,20.2,56.5,60.5,77.9,69.3c6.2,2.5,13.3,1,17.9-3.8l11.1-11.4c4.3-4.5,10.7-6.2,16.7-4.4l45.2,13.1
		c10.8,3.1,15.6,15.9,9.6,25.5c-8.9,14.1-22.9,31.3-40.5,35.6c-31,7.6-78.5,0.2-137.9-55.7C133.9,259.8,120.4,219.6,123.6,187.6z"/>
	<path class="st1" d="M42.4,356.6l-25,120.5c-1.4,6.5,4.6,12.2,11.1,10.7l119-28c30.6,15.1,64.9,23.8,101.3,24.4
		c128.3,1.9,235.2-99.1,239.2-226.2C492.2,121.6,378.7,10.5,240.8,17C115.3,22.9,16.3,126.6,16.7,251.2
		C16.8,289.1,26.1,324.9,42.4,356.6z M121.9,121c34.5-34.3,81.6-53.6,130.5-53.6c49.3,0,95.6,19,130.5,53.6
		c34.9,34.6,54,80.5,54,129.4c0,48.5-19.5,95.2-54,129.4c-34.9,34.6-81.2,53.6-130.5,53.6c-28.9,0-56.5-6.4-82.1-19.1l-16.6-8.2
		l-73,17.1l15.4-73.9l-8.2-15.9c-13.3-25.9-20.1-53.8-20.1-83.1C67.8,201.6,87,155.6,121.9,121z"/>
	<path class="st1" d="M185.4,308.2c59.4,55.9,106.9,63.3,137.9,55.7c17.6-4.3,31.6-21.5,40.5-35.6c6-9.6,1.3-22.3-9.6-25.5
		l-45.2-13.1c-5.9-1.7-12.4,0-16.7,4.4l-11.1,11.4c-4.7,4.8-11.7,6.3-17.9,3.8c-21.4-8.7-66.4-49.1-77.9-69.3
		c-3.3-5.8-2.8-13.1,1.3-18.4l9.7-12.6c3.8-4.9,4.6-11.6,2.1-17.3l-19-43.4c-4.6-10.4-17.7-13.4-26.3-6.1
		c-12.6,10.8-27.6,27.1-29.4,45.2C120.4,219.6,133.9,259.8,185.4,308.2z"/>
</g>
</svg>
