<?xml version="1.0" encoding="UTF-8"?>
<svg width="22px" height="22px" viewBox="0 0 22 22" version="1.1" xmlns="http://www.w3.org/2000/svg" xmlns:xlink="http://www.w3.org/1999/xlink">
    <!-- Generator: Sketch 63.1 (92452) - https://sketch.com -->
    <title>dv/icons/orange-autos</title>
    <desc>Created with Sketch.</desc>
    <g id="dv/icons/orange-autos" stroke="none" stroke-width="1" fill="none" fill-rule="evenodd">
        <g id="icon" transform="translate(0.000000, 2.444444)" fill="#E57511">
            <path d="M20.7777778,13.6021505 C20.7777778,14.2544624 20.2296111,14.7849462 19.5555556,14.7849462 L16.5,14.7849462 L6.11111111,14.7849462 L2.44444444,14.7849462 C1.77038889,14.7849462 1.22222222,14.2544624 1.22222222,13.6021505 L1.22222222,9.46236559 C1.22222222,8.97387097 1.63166667,8.53091398 2.24155556,8.3594086 C2.57461111,8.26596774 2.85144444,8.03946237 3.00177778,7.73725806 L5.60083333,2.52112903 C6.006,1.70795699 6.87011111,1.1827957 7.80266667,1.1827957 L14.1973333,1.1827957 C15.1298889,1.1827957 15.994,1.70795699 16.3991667,2.52112903 L18.9976111,7.73725806 C19.1485556,8.03946237 19.4247778,8.26596774 19.7584444,8.3594086 C20.3677222,8.53091398 20.7777778,8.97387097 20.7777778,9.46236559 L20.7777778,13.6021505 Z M19.5555556,16.5591398 C19.5555556,16.885 19.2817778,17.1505376 18.9444444,17.1505376 L17.7222222,17.1505376 C17.3848889,17.1505376 17.1111111,16.885 17.1111111,16.5591398 L17.1111111,15.9677419 L19.5555556,15.9677419 L19.5555556,16.5591398 Z M5.5,16.5591398 C5.5,16.885 5.22561111,17.1505376 4.88888889,17.1505376 L3.66666667,17.1505376 C3.32994444,17.1505376 3.05555556,16.885 3.05555556,16.5591398 L3.05555556,15.9677419 L5.5,15.9677419 L5.5,16.5591398 Z M20.0988333,7.22333333 L19.4461667,5.91397849 L20.7777778,5.91397849 C21.1157222,5.91397849 21.3888889,5.64903226 21.3888889,5.32258065 C21.3888889,4.99612903 21.1157222,4.7311828 20.7777778,4.7311828 L18.9444444,4.7311828 C18.9163333,4.7311828 18.8918889,4.74360215 18.865,4.74655914 L17.4997778,2.0072043 C16.8886667,0.780053763 15.6053333,0 14.1973333,0 L7.80266667,0 C6.39466667,0 5.11133333,0.780053763 4.49961111,2.0072043 L3.135,4.74655914 C3.1075,4.74360215 3.08366667,4.7311828 3.05555556,4.7311828 L1.22222222,4.7311828 C0.884888889,4.7311828 0.611111111,4.99612903 0.611111111,5.32258065 C0.611111111,5.64903226 0.884888889,5.91397849 1.22222222,5.91397849 L2.55322222,5.91397849 L1.90116667,7.22333333 C0.800555556,7.53263441 0,8.41263441 0,9.46236559 L0,13.6021505 C0,14.7033333 0.781,15.6205914 1.83333333,15.8837634 L1.83333333,16.5591398 C1.83333333,17.5373118 2.65588889,18.3333333 3.66666667,18.3333333 L4.88888889,18.3333333 C5.89966667,18.3333333 6.72222222,17.5373118 6.72222222,16.5591398 L6.72222222,15.9677419 L15.8888889,15.9677419 L15.8888889,16.5591398 C15.8888889,17.5373118 16.7114444,18.3333333 17.7222222,18.3333333 L18.9444444,18.3333333 C19.9552222,18.3333333 20.7777778,17.5373118 20.7777778,16.5591398 L20.7777778,15.6395161 C21.505,15.2296774 22,14.4756452 22,13.6021505 L22,9.46236559 C22,8.41263441 21.1994444,7.53263441 20.0988333,7.22333333 L20.0988333,7.22333333 Z" id="Fill-1"></path>
            <path d="M6.7221,12.2222222 L5.49987778,12.2222222 C5.16254444,12.2222222 4.88876667,11.9478333 4.88876667,11.6111111 C4.88876667,11.2743889 5.16254444,11 5.49987778,11 L6.7221,11 C7.05882222,11 7.33321111,11.2743889 7.33321111,11.6111111 C7.33321111,11.9478333 7.05882222,12.2222222 6.7221,12.2222222 M6.7221,9.77777778 L5.49987778,9.77777778 C4.48726667,9.77777778 3.66654444,10.5985 3.66654444,11.6111111 C3.66654444,12.6237222 4.48726667,13.4444444 5.49987778,13.4444444 L6.7221,13.4444444 C7.73471111,13.4444444 8.55543333,12.6237222 8.55543333,11.6111111 C8.55543333,10.5985 7.73471111,9.77777778 6.7221,9.77777778" id="Fill-4"></path>
            <path d="M16.4998778,12.2222222 L15.2776556,12.2222222 C14.9403222,12.2222222 14.6665444,11.9478333 14.6665444,11.6111111 C14.6665444,11.2743889 14.9403222,11 15.2776556,11 L16.4998778,11 C16.8366,11 17.1109889,11.2743889 17.1109889,11.6111111 C17.1109889,11.9478333 16.8366,12.2222222 16.4998778,12.2222222 M16.4998778,9.77777778 L15.2776556,9.77777778 C14.2650444,9.77777778 13.4443222,10.5985 13.4443222,11.6111111 C13.4443222,12.6237222 14.2650444,13.4444444 15.2776556,13.4444444 L16.4998778,13.4444444 C17.5124889,13.4444444 18.3332111,12.6237222 18.3332111,11.6111111 C18.3332111,10.5985 17.5124889,9.77777778 16.4998778,9.77777778" id="Fill-6"></path>
            <path d="M6.10107399,6.47166667 L7.29801772,3.66666667 L13.4792322,3.66666667 L14.676176,6.47166667 C14.7892046,6.73566667 14.6987817,6.94955556 14.6344423,7.05405556 C14.5706826,7.15855556 14.4222964,7.33333333 14.14755,7.33333333 L6.62969998,7.33333333 C6.35495358,7.33333333 6.20714697,7.15855556 6.14280762,7.05405556 C6.0790479,6.94955556 5.98862504,6.73566667 6.10107399,6.47166667 M6.62969998,8.55555556 L14.14755,8.55555556 C15.4099923,8.55555556 16.2516206,7.18361111 15.733428,5.96994444 L14.5364842,3.16494444 C14.3492625,2.72677778 13.935404,2.44444444 13.4792322,2.44444444 L7.29801772,2.44444444 C6.84184594,2.44444444 6.42798743,2.72677778 6.24134536,3.16494444 L5.04382199,5.96994444 C4.52620904,7.18361111 5.36783727,8.55555556 6.62969998,8.55555556" id="Fill-8"></path>
        </g>
    </g>
</svg>